\relax 
\@writefile{toc}{\contentsline {section}{\numberline {1}What Are the Inputs?}{1}}
\@writefile{toc}{\contentsline {section}{\numberline {2}What are you going to do?}{3}}
\@writefile{lof}{\contentsline {figure}{\numberline {1}{\ignorespaces explanation of the config\_file}}{4}}
\newlabel{fig:1}{{1}{4}}
